{
  "data": [
    {
      "name": "Tiger Nixon",
      "hr": {
        "position": "System Architect",
        "salary": "$320,800",
        "start_date": "2011/04/25"
      },
      "contact": [
        "Edinburgh",
        "5421"
      ]
    },
    {
      "name": "Garrett Winters",
      "hr": {
        "position": "Accountant",
        "salary": "$170,750",
        "start_date": "2011/07/25"
      },
      "contact": [
        "Tokyo",
        "8422"
      ]
    },
    {
      "name": "Ashton Cox",
      "hr": {
        "position": "Junior Technical Author",
        "salary": "$86,000",
        "start_date": "2009/01/12"
      },
      "contact": [
        "San Francisco",
        "1562"
      ]
    },
    {
      "name": "Cedric Kelly",
      "hr": {
        "position": "Senior Javascript Developer",
        "salary": "$433,060",
        "start_date": "2012/03/29"
      },
      "contact": [
        "Edinburgh",
        "6224"
      ]
    },
    {
      "name": "Airi Satou",
      "hr": {
        "position": "Accountant",
        "salary": "$162,700",
        "start_date": "2008/11/28"
      },
      "contact": [
        "Tokyo",
        "5407"
      ]
    },
    {
      "name": "Brielle Williamson",
      "hr": {
        "position": "Integration Specialist",
        "salary": "$372,000",
        "start_date": "2012/12/02"
      },
      "contact": [
        "New York",
        "4804"
      ]
    },
    {
      "name": "Herrod Chandler",
      "hr": {
        "position": "Sales Assistant",
        "salary": "$137,500",
        "start_date": "2012/08/06"
      },
      "contact": [
        "San Francisco",
        "9608"
      ]
    },
    {
      "name": "Rhona Davidson",
      "hr": {
        "position": "Integration Specialist",
        "salary": "$327,900",
        "start_date": "2010/10/14"
      },
      "contact": [
        "Tokyo",
        "6200"
      ]
    },
    {
      "name": "Colleen Hurst",
      "hr": {
        "position": "Javascript Developer",
        "salary": "$205,500",
        "start_date": "2009/09/15"
      },
      "contact": [
        "San Francisco",
        "2360"
      ]
    },
    {
      "name": "Donna Snider",
      "hr": {
        "position": "Customer Support",
        "salary": "$112,000",
        "start_date": "2011/01/25"
      },
      "contact": [
        "New York",
        "4226"
      ]
    }
  ]
}